%YAML 1.1
%TAG !u! tag:unity3d.com,2011:
--- !u!114 &11400000
MonoBehaviour:
  m_ObjectHideFlags: 0
  m_PrefabParentObject: {fileID: 0}
  m_PrefabInternal: {fileID: 0}
  m_GameObject: {fileID: 0}
  m_Enabled: 1
  m_EditorHideFlags: 0
  m_Script: {fileID: 11500000, guid: 1a8833774330da449a71bbe65eb52f51, type: 3}
  m_Name: DialogWindow
  m_EditorClassIdentifier: 
  isVillain: 0
  MovementSpeed: 100
  MovementSpeedQuick: 100
  GoldPerDay: 0
  MeatPerDay: 0
  BonesPerDay: 0
  MagicPerDay: 0
